{
  "total_results": 35,
  "total_pages": 7,
  "per_page": 5,
  "page": 1,
  "etablissement": [
    {
      "id": 169416217,
      "siren": "511125122",
      "siret": "51112512200024",
      "nic": "00024",
      "l1_normalisee": "SCI MENOZA",
      "l2_normalisee": null,
      "l3_normalisee": null,
      "l4_normalisee": "160 RUELLE DU HERLIN",
      "l5_normalisee": null,
      "l6_normalisee": "62700 BRUAY-LA-BUISSIERE",
      "l7_normalisee": null,
      "l1_declaree": null,
      "l2_declaree": null,
      "l3_declaree": null,
      "l4_declaree": "160 RUELLE DU HERLIN",
      "l5_declaree": null,
      "l6_declaree": "62700 BRUAY-LA-BUISSIERE",
      "l7_declaree": null,
      "numero_voie": "160",
      "indice_repetition": null,
      "type_voie": "RLE",
      "libelle_voie": "DU HERLIN",
      "code_postal": "62700",
      "cedex": null,
      "region": "32",
      "libelle_region": "Hauts-de-France",
      "departement": "62",
      "arrondissement": "2",
      "canton": "16",
      "commune": "178",
      "libelle_commune": "BRUAY LA BUISSIERE",
      "departement_unite_urbaine": "62",
      "taille_unite_urbaine": "7",
      "numero_unite_urbaine": "00752",
      "etablissement_public_cooperation_intercommunale": "200072460",
      "tranche_commune_detaillee": "41",
      "zone_emploi": "3123",
      "is_siege": "1",
      "enseigne": null,
      "indicateur_champ_publipostage": "A",
      "statut_prospection": null,
      "date_introduction_base_diffusion": "201312",
      "nature_entrepreneur_individuel": null,
      "libelle_nature_entrepreneur_individuel": null,
      "activite_principale": "6820B",
      "libelle_activite_principale": "Location de terrains et d'autres biens immobiliers",
      "date_validite_activite_principale": null,
      "tranche_effectif_salarie": null,
      "libelle_tranche_effectif_salarie": null,
      "tranche_effectif_salarie_centaine_pret": null,
      "date_validite_effectif_salarie": null,
      "origine_creation": null,
      "date_creation": "20131201",
      "date_debut_activite": "20131201",
      "nature_activite": null,
      "lieu_activite": null,
      "type_magasin": null,
      "is_saisonnier": null,
      "modalite_activite_principale": null,
      "caractere_productif": null,
      "participation_particuliere_production": null,
      "caractere_auxiliaire": null,
      "nom_raison_sociale": "SCI MENOZA",
      "sigle": null,
      "nom": null,
      "prenom": null,
      "civilite": null,
      "numero_rna": null,
      "nic_siege": "00024",
      "region_siege": "32",
      "departement_commune_siege": "62178",
      "email": null,
      "nature_juridique_entreprise": "6540",
      "libelle_nature_juridique_entreprise": "Société civile immobilière",
      "activite_principale_entreprise": "6820B",
      "libelle_activite_principale_entreprise": "Location de terrains et d'autres biens immobiliers",
      "date_validite_activite_principale_entreprise": null,
      "activite_principale_registre_metier": null,
      "is_ess": null,
      "date_ess": null,
      "tranche_effectif_salarie_entreprise": null,
      "libelle_tranche_effectif_salarie_entreprise": null,
      "tranche_effectif_salarie_entreprise_centaine_pret": null,
      "date_validite_effectif_salarie_entreprise": null,
      "categorie_entreprise": null,
      "date_creation_entreprise": "200902",
      "date_introduction_base_diffusion_entreprise": "201312",
      "indice_monoactivite_entreprise": null,
      "modalite_activite_principale_entreprise": null,
      "caractere_productif_entreprise": null,
      "date_validite_rubrique_niveau_entreprise_esa": null,
      "tranche_chiffre_affaire_entreprise_esa": null,
      "activite_principale_entreprise_esa": null,
      "premiere_activite_secondaire_entreprise_esa": null,
      "deuxieme_activite_secondaire_entreprise_esa": null,
      "troisieme_activite_secondaire_entreprise_esa": null,
      "quatrieme_activite_secondaire_entreprise_esa": null,
      "nature_mise_a_jour": null,
      "indicateur_mise_a_jour_1": null,
      "indicateur_mise_a_jour_2": null,
      "indicateur_mise_a_jour_3": null,
      "date_mise_a_jour": "2021-02-23T15:19:11",
      "created_at": "2021-06-03T01:53:54.000+02:00",
      "updated_at": "2021-06-03T01:53:54.000+02:00",
      "longitude": "2.564399",
      "latitude": "50.499922",
      "geo_score": "0.96",
      "geo_type": "housenumber",
      "geo_adresse": "160 Ruelle du Herlin 62700 Bruay-la-Buissière",
      "geo_id": "62482_0098_00160",
      "geo_ligne": "G",
      "geo_l4": "160 RUELLE DU HERLIN",
      "geo_l5": null
    },
    {
      "id": 170002635,
      "siren": "834364291",
      "siret": "83436429100015",
      "nic": "00015",
      "l1_normalisee": "MENOZ",
      "l2_normalisee": null,
      "l3_normalisee": null,
      "l4_normalisee": "55 RUE DES PYRENEES",
      "l5_normalisee": null,
      "l6_normalisee": "75020 PARIS 20",
      "l7_normalisee": null,
      "l1_declaree": null,
      "l2_declaree": null,
      "l3_declaree": null,
      "l4_declaree": "55 RUE DES PYRENEES",
      "l5_declaree": null,
      "l6_declaree": "75020 PARIS 20",
      "l7_declaree": null,
      "numero_voie": "55",
      "indice_repetition": null,
      "type_voie": "RUE",
      "libelle_voie": "DES PYRENEES",
      "code_postal": "75020",
      "cedex": null,
      "region": "11",
      "libelle_region": null,
      "departement": "75",
      "arrondissement": "1",
      "canton": null,
      "commune": "120",
      "libelle_commune": "PARIS 20E ARRONDISSEMENT",
      "departement_unite_urbaine": null,
      "taille_unite_urbaine": null,
      "numero_unite_urbaine": null,
      "etablissement_public_cooperation_intercommunale": null,
      "tranche_commune_detaillee": "80",
      "zone_emploi": null,
      "is_siege": "1",
      "enseigne": null,
      "indicateur_champ_publipostage": "A",
      "statut_prospection": null,
      "date_introduction_base_diffusion": "201803",
      "nature_entrepreneur_individuel": null,
      "libelle_nature_entrepreneur_individuel": null,
      "activite_principale": "6201Z",
      "libelle_activite_principale": "Programmation informatique",
      "date_validite_activite_principale": null,
      "tranche_effectif_salarie": "01",
      "libelle_tranche_effectif_salarie": null,
      "tranche_effectif_salarie_centaine_pret": null,
      "date_validite_effectif_salarie": "2018",
      "origine_creation": null,
      "date_creation": "20180102",
      "date_debut_activite": "20180325",
      "nature_activite": null,
      "lieu_activite": null,
      "type_magasin": null,
      "is_saisonnier": null,
      "modalite_activite_principale": null,
      "caractere_productif": null,
      "participation_particuliere_production": null,
      "caractere_auxiliaire": null,
      "nom_raison_sociale": "MENOZ",
      "sigle": null,
      "nom": null,
      "prenom": null,
      "civilite": null,
      "numero_rna": null,
      "nic_siege": "00015",
      "region_siege": "11",
      "departement_commune_siege": "75120",
      "email": null,
      "nature_juridique_entreprise": "5710",
      "libelle_nature_juridique_entreprise": "SAS, société par actions simplifiée",
      "activite_principale_entreprise": "6201Z",
      "libelle_activite_principale_entreprise": "Programmation informatique",
      "date_validite_activite_principale_entreprise": null,
      "activite_principale_registre_metier": null,
      "is_ess": null,
      "date_ess": null,
      "tranche_effectif_salarie_entreprise": "01",
      "libelle_tranche_effectif_salarie_entreprise": null,
      "tranche_effectif_salarie_entreprise_centaine_pret": null,
      "date_validite_effectif_salarie_entreprise": "2018",
      "categorie_entreprise": "PME",
      "date_creation_entreprise": "201801",
      "date_introduction_base_diffusion_entreprise": "201803",
      "indice_monoactivite_entreprise": null,
      "modalite_activite_principale_entreprise": null,
      "caractere_productif_entreprise": null,
      "date_validite_rubrique_niveau_entreprise_esa": null,
      "tranche_chiffre_affaire_entreprise_esa": null,
      "activite_principale_entreprise_esa": null,
      "premiere_activite_secondaire_entreprise_esa": null,
      "deuxieme_activite_secondaire_entreprise_esa": null,
      "troisieme_activite_secondaire_entreprise_esa": null,
      "quatrieme_activite_secondaire_entreprise_esa": null,
      "nature_mise_a_jour": null,
      "indicateur_mise_a_jour_1": null,
      "indicateur_mise_a_jour_2": null,
      "indicateur_mise_a_jour_3": null,
      "date_mise_a_jour": "2020-08-25T11:39:32",
      "created_at": "2021-06-03T01:57:56.000+02:00",
      "updated_at": "2021-06-03T01:57:56.000+02:00",
      "longitude": "2.406077",
      "latitude": "48.851854",
      "geo_score": "0.99",
      "geo_type": "housenumber",
      "geo_adresse": "55 Rue des Pyrénées 75020 Paris",
      "geo_id": "75120_7904_00055",
      "geo_ligne": "G",
      "geo_l4": "55 RUE DES PYRENEES",
      "geo_l5": null
    },
    {
      "id": 159190900,
      "siren": "403049448",
      "siret": "40304944800034",
      "nic": "00034",
      "l1_normalisee": "MISTRAL MENOZZI",
      "l2_normalisee": null,
      "l3_normalisee": null,
      "l4_normalisee": "551 ROUTE DE GADAGNE",
      "l5_normalisee": null,
      "l6_normalisee": "84450 SAINT-SATURNIN-LES-AVIGNON",
      "l7_normalisee": null,
      "l1_declaree": null,
      "l2_declaree": null,
      "l3_declaree": null,
      "l4_declaree": "551 ROUTE DE GADAGNE",
      "l5_declaree": null,
      "l6_declaree": "84450 SAINT-SATURNIN-LES-AVIGNON",
      "l7_declaree": null,
      "numero_voie": "551",
      "indice_repetition": null,
      "type_voie": "RTE",
      "libelle_voie": "DE GADAGNE",
      "code_postal": "84450",
      "cedex": null,
      "region": "93",
      "libelle_region": "Provence-Alpes-Côte d'Azur",
      "departement": "84",
      "arrondissement": "2",
      "canton": "14",
      "commune": "119",
      "libelle_commune": "SAINT SATURNIN LES AVIGNON",
      "departement_unite_urbaine": "84",
      "taille_unite_urbaine": "7",
      "numero_unite_urbaine": "00754",
      "etablissement_public_cooperation_intercommunale": "248400251",
      "tranche_commune_detaillee": "18",
      "zone_emploi": "59",
      "is_siege": "1",
      "enseigne": null,
      "indicateur_champ_publipostage": "A",
      "statut_prospection": null,
      "date_introduction_base_diffusion": "201909",
      "nature_entrepreneur_individuel": null,
      "libelle_nature_entrepreneur_individuel": null,
      "activite_principale": "6820A",
      "libelle_activite_principale": "Location de logements",
      "date_validite_activite_principale": null,
      "tranche_effectif_salarie": null,
      "libelle_tranche_effectif_salarie": null,
      "tranche_effectif_salarie_centaine_pret": null,
      "date_validite_effectif_salarie": null,
      "origine_creation": null,
      "date_creation": "20190902",
      "date_debut_activite": "20190902",
      "nature_activite": null,
      "lieu_activite": null,
      "type_magasin": null,
      "is_saisonnier": null,
      "modalite_activite_principale": null,
      "caractere_productif": null,
      "participation_particuliere_production": null,
      "caractere_auxiliaire": null,
      "nom_raison_sociale": "MISTRAL MENOZZI",
      "sigle": null,
      "nom": null,
      "prenom": null,
      "civilite": null,
      "numero_rna": null,
      "nic_siege": "00034",
      "region_siege": "93",
      "departement_commune_siege": "84119",
      "email": null,
      "nature_juridique_entreprise": "6540",
      "libelle_nature_juridique_entreprise": "Société civile immobilière",
      "activite_principale_entreprise": "6820A",
      "libelle_activite_principale_entreprise": "Location de logements",
      "date_validite_activite_principale_entreprise": null,
      "activite_principale_registre_metier": null,
      "is_ess": null,
      "date_ess": null,
      "tranche_effectif_salarie_entreprise": "NN",
      "libelle_tranche_effectif_salarie_entreprise": null,
      "tranche_effectif_salarie_entreprise_centaine_pret": null,
      "date_validite_effectif_salarie_entreprise": null,
      "categorie_entreprise": null,
      "date_creation_entreprise": "199511",
      "date_introduction_base_diffusion_entreprise": "201909",
      "indice_monoactivite_entreprise": null,
      "modalite_activite_principale_entreprise": null,
      "caractere_productif_entreprise": null,
      "date_validite_rubrique_niveau_entreprise_esa": null,
      "tranche_chiffre_affaire_entreprise_esa": null,
      "activite_principale_entreprise_esa": null,
      "premiere_activite_secondaire_entreprise_esa": null,
      "deuxieme_activite_secondaire_entreprise_esa": null,
      "troisieme_activite_secondaire_entreprise_esa": null,
      "quatrieme_activite_secondaire_entreprise_esa": null,
      "nature_mise_a_jour": null,
      "indicateur_mise_a_jour_1": null,
      "indicateur_mise_a_jour_2": null,
      "indicateur_mise_a_jour_3": null,
      "date_mise_a_jour": "2020-01-21T19:35:08",
      "created_at": "2021-06-03T00:45:23.000+02:00",
      "updated_at": "2021-06-03T00:45:23.000+02:00",
      "longitude": "4.938683",
      "latitude": "43.953835",
      "geo_score": "0.96",
      "geo_type": "housenumber",
      "geo_adresse": "551 Route de Gadagne 84450 Saint-Saturnin-lès-Avignon",
      "geo_id": "84119_0298_00551",
      "geo_ligne": "G",
      "geo_l4": "551 ROUTE DE GADAGNE",
      "geo_l5": null
    },
    {
      "id": 164155083,
      "siren": "800559064",
      "siret": "80055906400012",
      "nic": "00012",
      "l1_normalisee": "MENOZZI VAISE",
      "l2_normalisee": "CLASS CROUTE",
      "l3_normalisee": null,
      "l4_normalisee": "51BIS RUE DE SAINT CYR",
      "l5_normalisee": null,
      "l6_normalisee": "69009 LYON 9EME",
      "l7_normalisee": null,
      "l1_declaree": "CLASS'CROUTE",
      "l2_declaree": null,
      "l3_declaree": null,
      "l4_declaree": "51BIS RUE DE SAINT CYR",
      "l5_declaree": null,
      "l6_declaree": "69009 LYON 9EME",
      "l7_declaree": null,
      "numero_voie": "51",
      "indice_repetition": "B",
      "type_voie": "RUE",
      "libelle_voie": "DE ST CYR",
      "code_postal": "69009",
      "cedex": null,
      "region": "84",
      "libelle_region": null,
      "departement": "69",
      "arrondissement": "1",
      "canton": null,
      "commune": "389",
      "libelle_commune": "LYON 9E ARRONDISSEMENT",
      "departement_unite_urbaine": null,
      "taille_unite_urbaine": null,
      "numero_unite_urbaine": null,
      "etablissement_public_cooperation_intercommunale": null,
      "tranche_commune_detaillee": null,
      "zone_emploi": null,
      "is_siege": "1",
      "enseigne": "CLASS'CROUTE",
      "indicateur_champ_publipostage": "A",
      "statut_prospection": null,
      "date_introduction_base_diffusion": "201404",
      "nature_entrepreneur_individuel": null,
      "libelle_nature_entrepreneur_individuel": null,
      "activite_principale": "5610C",
      "libelle_activite_principale": "Restauration de type rapide",
      "date_validite_activite_principale": null,
      "tranche_effectif_salarie": "11",
      "libelle_tranche_effectif_salarie": null,
      "tranche_effectif_salarie_centaine_pret": null,
      "date_validite_effectif_salarie": "2018",
      "origine_creation": null,
      "date_creation": "20140220",
      "date_debut_activite": "20140401",
      "nature_activite": null,
      "lieu_activite": null,
      "type_magasin": null,
      "is_saisonnier": null,
      "modalite_activite_principale": null,
      "caractere_productif": null,
      "participation_particuliere_production": null,
      "caractere_auxiliaire": null,
      "nom_raison_sociale": "MENOZZI VAISE",
      "sigle": null,
      "nom": null,
      "prenom": null,
      "civilite": null,
      "numero_rna": null,
      "nic_siege": "00012",
      "region_siege": "84",
      "departement_commune_siege": "69389",
      "email": null,
      "nature_juridique_entreprise": "5499",
      "libelle_nature_juridique_entreprise": "Société à responsabilité limitée (sans autre indication)",
      "activite_principale_entreprise": "5610C",
      "libelle_activite_principale_entreprise": "Restauration de type rapide",
      "date_validite_activite_principale_entreprise": null,
      "activite_principale_registre_metier": null,
      "is_ess": null,
      "date_ess": null,
      "tranche_effectif_salarie_entreprise": "11",
      "libelle_tranche_effectif_salarie_entreprise": null,
      "tranche_effectif_salarie_entreprise_centaine_pret": null,
      "date_validite_effectif_salarie_entreprise": "2018",
      "categorie_entreprise": "PME",
      "date_creation_entreprise": "201402",
      "date_introduction_base_diffusion_entreprise": "201602",
      "indice_monoactivite_entreprise": null,
      "modalite_activite_principale_entreprise": null,
      "caractere_productif_entreprise": null,
      "date_validite_rubrique_niveau_entreprise_esa": null,
      "tranche_chiffre_affaire_entreprise_esa": null,
      "activite_principale_entreprise_esa": null,
      "premiere_activite_secondaire_entreprise_esa": null,
      "deuxieme_activite_secondaire_entreprise_esa": null,
      "troisieme_activite_secondaire_entreprise_esa": null,
      "quatrieme_activite_secondaire_entreprise_esa": null,
      "nature_mise_a_jour": null,
      "indicateur_mise_a_jour_1": null,
      "indicateur_mise_a_jour_2": null,
      "indicateur_mise_a_jour_3": null,
      "date_mise_a_jour": "2020-08-25T11:09:50",
      "created_at": "2021-06-03T01:18:25.000+02:00",
      "updated_at": "2021-06-03T01:18:25.000+02:00",
      "longitude": "4.807071",
      "latitude": "45.782404",
      "geo_score": "0.62",
      "geo_type": "housenumber",
      "geo_adresse": "51bis Rue de Saint-Cyr 69009 Lyon",
      "geo_id": "69389_6295_00051_bis",
      "geo_ligne": "G",
      "geo_l4": "51BIS RUE DE SAINT CYR",
      "geo_l5": null
    },
    {
      "id": 161314597,
      "siren": "480134782",
      "siret": "48013478200014",
      "nic": "00014",
      "l1_normalisee": "MENOZZI CITE",
      "l2_normalisee": "CITE INTERNATIONALE",
      "l3_normalisee": null,
      "l4_normalisee": "85 QUAI CHARLES DE GAULLE",
      "l5_normalisee": null,
      "l6_normalisee": "69006 LYON 6EME",
      "l7_normalisee": null,
      "l1_declaree": null,
      "l2_declaree": null,
      "l3_declaree": null,
      "l4_declaree": "85 QUAI CHARLES DE GAULLE",
      "l5_declaree": null,
      "l6_declaree": "69006 LYON 6EME",
      "l7_declaree": null,
      "numero_voie": "85",
      "indice_repetition": null,
      "type_voie": "QUAI",
      "libelle_voie": "CHARLES DE GAULLE",
      "code_postal": "69006",
      "cedex": null,
      "region": "84",
      "libelle_region": null,
      "departement": "69",
      "arrondissement": "1",
      "canton": null,
      "commune": "386",
      "libelle_commune": "LYON 6E ARRONDISSEMENT",
      "departement_unite_urbaine": null,
      "taille_unite_urbaine": null,
      "numero_unite_urbaine": null,
      "etablissement_public_cooperation_intercommunale": null,
      "tranche_commune_detaillee": null,
      "zone_emploi": null,
      "is_siege": "1",
      "enseigne": null,
      "indicateur_champ_publipostage": "A",
      "statut_prospection": null,
      "date_introduction_base_diffusion": "200801",
      "nature_entrepreneur_individuel": null,
      "libelle_nature_entrepreneur_individuel": null,
      "activite_principale": "5610C",
      "libelle_activite_principale": "Restauration de type rapide",
      "date_validite_activite_principale": null,
      "tranche_effectif_salarie": "11",
      "libelle_tranche_effectif_salarie": null,
      "tranche_effectif_salarie_centaine_pret": null,
      "date_validite_effectif_salarie": "2018",
      "origine_creation": null,
      "date_creation": "20041228",
      "date_debut_activite": "20080101",
      "nature_activite": null,
      "lieu_activite": null,
      "type_magasin": null,
      "is_saisonnier": null,
      "modalite_activite_principale": null,
      "caractere_productif": null,
      "participation_particuliere_production": null,
      "caractere_auxiliaire": null,
      "nom_raison_sociale": "MENOZZI CITE",
      "sigle": null,
      "nom": null,
      "prenom": null,
      "civilite": null,
      "numero_rna": null,
      "nic_siege": "00014",
      "region_siege": "84",
      "departement_commune_siege": "69386",
      "email": null,
      "nature_juridique_entreprise": "5710",
      "libelle_nature_juridique_entreprise": "SAS, société par actions simplifiée",
      "activite_principale_entreprise": "5610C",
      "libelle_activite_principale_entreprise": "Restauration de type rapide",
      "date_validite_activite_principale_entreprise": null,
      "activite_principale_registre_metier": null,
      "is_ess": null,
      "date_ess": null,
      "tranche_effectif_salarie_entreprise": "11",
      "libelle_tranche_effectif_salarie_entreprise": null,
      "tranche_effectif_salarie_entreprise_centaine_pret": null,
      "date_validite_effectif_salarie_entreprise": "2018",
      "categorie_entreprise": "PME",
      "date_creation_entreprise": "200412",
      "date_introduction_base_diffusion_entreprise": "201812",
      "indice_monoactivite_entreprise": null,
      "modalite_activite_principale_entreprise": null,
      "caractere_productif_entreprise": null,
      "date_validite_rubrique_niveau_entreprise_esa": null,
      "tranche_chiffre_affaire_entreprise_esa": null,
      "activite_principale_entreprise_esa": null,
      "premiere_activite_secondaire_entreprise_esa": null,
      "deuxieme_activite_secondaire_entreprise_esa": null,
      "troisieme_activite_secondaire_entreprise_esa": null,
      "quatrieme_activite_secondaire_entreprise_esa": null,
      "nature_mise_a_jour": null,
      "indicateur_mise_a_jour_1": null,
      "indicateur_mise_a_jour_2": null,
      "indicateur_mise_a_jour_3": null,
      "date_mise_a_jour": "2021-02-23T13:43:00",
      "created_at": "2021-06-03T00:59:31.000+02:00",
      "updated_at": "2021-06-03T00:59:31.000+02:00",
      "longitude": "4.852064",
      "latitude": "45.78402",
      "geo_score": "0.97",
      "geo_type": "housenumber",
      "geo_adresse": "85 Quai Charles de Gaulle 69006 Lyon",
      "geo_id": "69386_1380_00085",
      "geo_ligne": "G",
      "geo_l4": "85 QUAI CHARLES DE GAULLE",
      "geo_l5": null
    }
  ],
  "spellcheck": null,
  "suggestions": [
    "menoz",
    "menozzi*albertini/marie agnes/",
    "menozzi*dominique emile/",
    "menoz compagnie yado",
    "menozzi champagne",
    "menozzi cite",
    "menozzi holding",
    "menozzi industrie",
    "menozzi vaise",
    "menozzi*annalisa/"
  ]
}